100 10 10 10 10 10 10 10 10 10 10 10
100 10 12  7 35 73 65 11 10 52  4 74
100 10 58 60  6 90 78 38 51 39 99 71
100 10 56 90 64 35 92 30 47 62 83 81
100 10 48 94 63 17 87 21  5 33 34 50
100 10 50 77  5 63 75 98 39 83 47 30
100 10 90 19 57 67 46 84 65 69 95 24
100 10 22 41 39 40 10 92 94  3 35 90
100 10 11 91 36 59 79 33 60 74  7 33
100 10 100 100 100 100 100 100 100 100 100 100
#